<?xml version="1.0" encoding="UTF-8" standalone="no"?>
<!-- Generator: Adobe Illustrator 16.0.0, SVG Export Plug-In . SVG Version: 6.00 Build 0)  -->

<svg
   version="1.1"
   id="Layer_1"
   x="0px"
   y="0px"
   width="640px"
   height="480px"
   viewBox="0 0 640 480"
   enable-background="new 0 0 640 480"
   xml:space="preserve"
   sodipodi:docname="emma_Ice_boot.svg"
   inkscape:version="1.1.1 (3bf5ae0d25, 2021-09-20)"
   inkscape:export-filename="/home/emmabuntus/Travail/EmmaDE5_64/emmabuntus_de_4/Ecrans/Fond_ecran_demarrage/theme_ice-main/SVG/emma_Ice_boot.png"
   inkscape:export-xdpi="96"
   inkscape:export-ydpi="96"
   xmlns:inkscape="http://www.inkscape.org/namespaces/inkscape"
   xmlns:sodipodi="http://sodipodi.sourceforge.net/DTD/sodipodi-0.dtd"
   xmlns:xlink="http://www.w3.org/1999/xlink"
   xmlns="http://www.w3.org/2000/svg"
   xmlns:svg="http://www.w3.org/2000/svg"><defs
   id="defs223" /><sodipodi:namedview
   id="namedview221"
   pagecolor="#ffffff"
   bordercolor="#666666"
   borderopacity="1.0"
   inkscape:pageshadow="2"
   inkscape:pageopacity="0.0"
   inkscape:pagecheckerboard="0"
   showgrid="false"
   inkscape:zoom="14.967094"
   inkscape:cx="293.94484"
   inkscape:cy="85.921824"
   inkscape:window-width="1680"
   inkscape:window-height="997"
   inkscape:window-x="0"
   inkscape:window-y="25"
   inkscape:window-maximized="1"
   inkscape:current-layer="Layer_1" />
<g
   id="g218"
   inkscape:export-filename="/home/emmabuntus/Travail/EmmaDE5_64/emmabuntus_de_4/Ecrans/Fond_ecran_demarrage/theme_ice-main/PNG/Emma_Boot.png"
   inkscape:export-xdpi="96"
   inkscape:export-ydpi="96">
	<defs
   id="defs3">
		<rect
   id="SVGID_1_"
   width="640"
   height="480" />
	</defs>
	<clipPath
   id="SVGID_2_">
		<use
   xlink:href="#SVGID_1_"
   overflow="visible"
   id="use5" />
	</clipPath>
	<g
   id="BACK"
   clip-path="url(#SVGID_2_)">
		
			<linearGradient
   id="SVGID_3_"
   gradientUnits="userSpaceOnUse"
   x1="-339.2852"
   y1="673.7432"
   x2="133.8001"
   y2="1299.1786"
   gradientTransform="matrix(1.1562 0.0057 -0.0052 1.0692 410.2798 -775.7094)">
			<stop
   offset="0"
   style="stop-color:#689CAE"
   id="stop8" />
			<stop
   offset="0.1409"
   style="stop-color:#48839E"
   id="stop10" />
			<stop
   offset="0.3129"
   style="stop-color:#276A8E"
   id="stop12" />
			<stop
   offset="0.4567"
   style="stop-color:#135B84"
   id="stop14" />
			<stop
   offset="0.5538"
   style="stop-color:#0C5580"
   id="stop16" />
			<stop
   offset="0.5974"
   style="stop-color:#0A4E77"
   id="stop18" />
			<stop
   offset="0.7493"
   style="stop-color:#053A5E"
   id="stop20" />
			<stop
   offset="0.8878"
   style="stop-color:#012E4F"
   id="stop22" />
			<stop
   offset="1"
   style="stop-color:#002A4A"
   id="stop24" />
		</linearGradient>
		<path
   fill="url(#SVGID_3_)"
   d="M275.692,603.902c282.258,1.385,501.57-50.865,502.552-250.971    C779.224,152.824,724.307-100.902,296.835-103l1.114,0.006c-437.105-2.146-484.879,251.073-485.861,451.184    C-188.894,548.297,13.5,602.704,295.759,604.089L275.692,603.902z"
   id="path27" />
		
			<linearGradient
   id="SVGID_4_"
   gradientUnits="userSpaceOnUse"
   x1="118.2754"
   y1="-549.1021"
   x2="146.3023"
   y2="-1145.1559"
   gradientTransform="matrix(-1.1562 -0.0057 -0.0047 0.9483 479.3727 814.5357)">
			<stop
   offset="0"
   style="stop-color:#00E3E0;stop-opacity:0"
   id="stop29" />
			<stop
   offset="0.1583"
   style="stop-color:#02E3E0;stop-opacity:0"
   id="stop31" />
			<stop
   offset="0.2153"
   style="stop-color:#09E4E0;stop-opacity:0"
   id="stop33" />
			<stop
   offset="0.256"
   style="stop-color:#14E6E0;stop-opacity:0"
   id="stop35" />
			<stop
   offset="0.2888"
   style="stop-color:#25E9E0;stop-opacity:0"
   id="stop37" />
			<stop
   offset="0.317"
   style="stop-color:#3BEDE0;stop-opacity:0"
   id="stop39" />
			<stop
   offset="0.3419"
   style="stop-color:#57F1E0;stop-opacity:0"
   id="stop41" />
			<stop
   offset="0.3644"
   style="stop-color:#77F6E0;stop-opacity:0"
   id="stop43" />
			<stop
   offset="0.3845"
   style="stop-color:#9BFCE0;stop-opacity:0"
   id="stop45" />
			<stop
   offset="0.3925"
   style="stop-color:#ACFFE0;stop-opacity:0"
   id="stop47" />
			<stop
   offset="0.6748"
   style="stop-color:#AEFEDE;stop-opacity:0.4647"
   id="stop49" />
			<stop
   offset="0.7764"
   style="stop-color:#B4FBD7;stop-opacity:0.632"
   id="stop51" />
			<stop
   offset="0.8489"
   style="stop-color:#C0F6CC;stop-opacity:0.7513"
   id="stop53" />
			<stop
   offset="0.9075"
   style="stop-color:#D0EEBB;stop-opacity:0.8478"
   id="stop55" />
			<stop
   offset="0.9571"
   style="stop-color:#E6E4A5;stop-opacity:0.9295"
   id="stop57" />
			<stop
   offset="1"
   style="stop-color:#FFD88B"
   id="stop59" />
		</linearGradient>
		<path
   fill="url(#SVGID_4_)"
   d="M345.929-271.465c-282.259-1.246-501.542,40.36-502.413,200.117    c-0.872,159.761,54.186,362.353,481.662,364.243l-1.112-0.006c437.104,1.933,484.738-200.208,485.609-359.97    c0.87-159.758-201.553-203.298-483.813-204.544L345.929-271.465z"
   id="path62" />
	</g>
	<g
   id="TRIANGLES"
   clip-path="url(#SVGID_2_)">
		
			<radialGradient
   id="SVGID_5_"
   cx="734.4717"
   cy="-1612.4443"
   r="287.9383"
   gradientTransform="matrix(-0.8799 0.4752 -0.2991 -0.5537 233.9721 -939.0123)"
   gradientUnits="userSpaceOnUse">
			<stop
   offset="0"
   style="stop-color:#FFD88B"
   id="stop65" />
			<stop
   offset="0.3109"
   style="stop-color:#ECE5A6;stop-opacity:0.7513"
   id="stop67" />
			<stop
   offset="1"
   style="stop-color:#C3FFE0;stop-opacity:0.2"
   id="stop69" />
		</radialGradient>
		<polygon
   opacity="0.2"
   fill="url(#SVGID_5_)"
   enable-background="new    "
   points="215.957,345.035 -82.257,104.297     47.873,489.865 130.736,550.761   "
   id="polygon72" />
		
			<radialGradient
   id="SVGID_6_"
   cx="732.3184"
   cy="-1401.6533"
   r="331.4816"
   gradientTransform="matrix(-0.8799 0.4752 -0.2991 -0.5537 233.9721 -939.0123)"
   gradientUnits="userSpaceOnUse">
			<stop
   offset="0"
   style="stop-color:#FFD88B"
   id="stop74" />
			<stop
   offset="0.3109"
   style="stop-color:#ECE5A6;stop-opacity:0.7513"
   id="stop76" />
			<stop
   offset="1"
   style="stop-color:#C3FFE0;stop-opacity:0.2"
   id="stop78" />
		</radialGradient>
		<polygon
   opacity="0.2"
   fill="url(#SVGID_6_)"
   enable-background="new    "
   points="-30.311,-119.639 -1.152,-57.342     157.039,235.565 47.992,489.801   "
   id="polygon81" />
		
			<radialGradient
   id="SVGID_7_"
   cx="710.3359"
   cy="-1470.874"
   r="382.7981"
   gradientTransform="matrix(-0.8799 0.4752 -0.2991 -0.5537 233.9721 -939.0123)"
   gradientUnits="userSpaceOnUse">
			<stop
   offset="0"
   style="stop-color:#FFD88B"
   id="stop83" />
			<stop
   offset="0.3109"
   style="stop-color:#ECE5A6;stop-opacity:0.7513"
   id="stop85" />
			<stop
   offset="1"
   style="stop-color:#C3FFE0;stop-opacity:0.2"
   id="stop87" />
		</radialGradient>
		<polygon
   opacity="0.2"
   fill="url(#SVGID_7_)"
   enable-background="new    "
   points="-33.081,-124.77 6.651,-42.893     216.115,344.949 130.855,550.695   "
   id="polygon90" />
		
			<radialGradient
   id="SVGID_8_"
   cx="1159.1582"
   cy="-56.8662"
   r="301.6613"
   gradientTransform="matrix(-0.1239 0.9923 -0.6245 -0.078 82.1652 -956.6932)"
   gradientUnits="userSpaceOnUse">
			<stop
   offset="0"
   style="stop-color:#FFD88B"
   id="stop92" />
			<stop
   offset="0.3109"
   style="stop-color:#ECE5A6;stop-opacity:0.7513"
   id="stop94" />
			<stop
   offset="1"
   style="stop-color:#C3FFE0;stop-opacity:0.2"
   id="stop96" />
		</radialGradient>
		<polygon
   opacity="0.2"
   fill="url(#SVGID_8_)"
   enable-background="new    "
   points="74.477,318.396 216.115,344.949 31.26,149.462     -268,51   "
   id="polygon99" />
		
			<radialGradient
   id="SVGID_9_"
   cx="-551.6475"
   cy="-445.7402"
   r="336.7391"
   gradientTransform="matrix(-0.8473 -0.5312 0.3343 -0.5332 376.8267 -237.8018)"
   gradientUnits="userSpaceOnUse">
			<stop
   offset="0"
   style="stop-color:#FFD88B"
   id="stop101" />
			<stop
   offset="0.3109"
   style="stop-color:#ECE5A6;stop-opacity:0.7513"
   id="stop103" />
			<stop
   offset="1"
   style="stop-color:#C3FFE0;stop-opacity:0.2"
   id="stop105" />
		</radialGradient>
		<polygon
   opacity="0.5"
   fill="url(#SVGID_9_)"
   enable-background="new    "
   points="908.787,76.471 647.244,484.729     481.666,509.333 594.158,330.086   "
   id="polygon108" />
		
			<radialGradient
   id="SVGID_10_"
   cx="-472.6973"
   cy="-337.4932"
   r="276.63"
   gradientTransform="matrix(-0.8473 -0.5312 0.3343 -0.5332 376.8267 -237.8018)"
   gradientUnits="userSpaceOnUse">
			<stop
   offset="0"
   style="stop-color:#FFD88B"
   id="stop110" />
			<stop
   offset="0.3109"
   style="stop-color:#ECE5A6;stop-opacity:0.7513"
   id="stop112" />
			<stop
   offset="1"
   style="stop-color:#C3FFE0;stop-opacity:0.2"
   id="stop114" />
		</radialGradient>
		<polygon
   opacity="0.5"
   fill="url(#SVGID_10_)"
   enable-background="new    "
   points="614,1 573.211,366.334 633.684,443.829     908.787,76.471   "
   id="polygon117" />
		
			<radialGradient
   id="SVGID_11_"
   cx="-890.9893"
   cy="906.1973"
   r="300.8109"
   gradientTransform="matrix(0.9666 -0.2565 0.1614 0.6083 1307.4944 -538.6841)"
   gradientUnits="userSpaceOnUse">
			<stop
   offset="0"
   style="stop-color:#FFD88B"
   id="stop119" />
			<stop
   offset="0.3109"
   style="stop-color:#ECE5A6;stop-opacity:0.7513"
   id="stop121" />
			<stop
   offset="1"
   style="stop-color:#C3FFE0;stop-opacity:0.2"
   id="stop123" />
		</radialGradient>
		<polygon
   opacity="0.5"
   fill="url(#SVGID_11_)"
   enable-background="new    "
   points="614,509.333 594.158,330.086 496.023,123.322     585.584,-31   "
   id="polygon126" />
		
			<radialGradient
   id="SVGID_12_"
   cx="-748.5806"
   cy="1068.6523"
   r="249.2396"
   gradientTransform="matrix(0.9666 -0.2565 0.1614 0.6083 1307.4944 -538.6841)"
   gradientUnits="userSpaceOnUse">
			<stop
   offset="0"
   style="stop-color:#FFD88B"
   id="stop128" />
			<stop
   offset="0.3109"
   style="stop-color:#ECE5A6;stop-opacity:0.7513"
   id="stop130" />
			<stop
   offset="1"
   style="stop-color:#C3FFE0;stop-opacity:0.2"
   id="stop132" />
		</radialGradient>
		<polygon
   opacity="0.5"
   fill="url(#SVGID_12_)"
   enable-background="new    "
   points="633.684,443.829 908.787,76.471     540.615,291.386 640.332,520.666   "
   id="polygon135" />
		
			<radialGradient
   id="SVGID_13_"
   cx="-821.9053"
   cy="779.5674"
   r="227.9773"
   gradientTransform="matrix(0.9666 -0.2565 0.1614 0.6083 1307.4944 -538.6841)"
   gradientUnits="userSpaceOnUse">
			<stop
   offset="0"
   style="stop-color:#FFD88B"
   id="stop137" />
			<stop
   offset="0.3109"
   style="stop-color:#ECE5A6;stop-opacity:0.7513"
   id="stop139" />
			<stop
   offset="1"
   style="stop-color:#C3FFE0;stop-opacity:0.2"
   id="stop141" />
		</radialGradient>
		<polygon
   opacity="0.5"
   fill="url(#SVGID_13_)"
   enable-background="new    "
   points="614,344.428 540.615,291.386 585.584,-31     753.874,64.476   "
   id="polygon144" />
	</g>
	<g
   id="LOGO"
   clip-path="url(#SVGID_2_)">
		<g
   id="TEXT">
			<g
   id="g167">
				<path
   fill="#FFFFFF"
   d="M226.36,85.702h18.873v5.729h-11.764v4.501h10.792v5.729h-10.792v4.501h11.713v5.729H226.36V85.702z"
   id="path147" />
				<path
   fill="#FFFFFF"
   d="M248.859,92.249h6.7v3.734h0.205c0.818-2.455,2.902-3.99,5.626-3.99c2.762,0,4.961,1.585,5.371,3.99      h0.205c0.665-2.404,3.018-3.99,5.933-3.99c3.759,0,6.342,2.622,6.342,6.649v13.247h-7.059v-11.457      c0-1.713-0.946-2.762-2.404-2.762s-2.353,1.049-2.353,2.762v11.457h-6.751v-11.457c0-1.713-0.946-2.762-2.404-2.762      s-2.353,1.049-2.353,2.762v11.457h-7.059L248.859,92.249L248.859,92.249z"
   id="path149" />
				<path
   fill="#FFFFFF"
   d="M282.71,92.249h6.701v3.734h0.204c0.818-2.455,2.903-3.99,5.626-3.99c2.762,0,4.961,1.585,5.371,3.99      h0.205c0.665-2.404,3.018-3.99,5.933-3.99c3.759,0,6.342,2.622,6.342,6.649v13.247h-7.059v-11.457      c0-1.713-0.946-2.762-2.404-2.762s-2.353,1.049-2.353,2.762v11.457h-6.752v-11.457c0-1.713-0.946-2.762-2.404-2.762      s-2.353,1.049-2.353,2.762v11.457h-7.059v-19.64H282.71z"
   id="path151" />
				<path
   fill="#FFFFFF"
   d="M315.641,106.468c0-4.31,3.158-5.946,7.211-6.24c3.304-0.243,4.557-0.601,4.557-1.739v-0.051      c0-1.023-0.869-1.586-2.102-1.586c-1.342,0-2.232,0.576-2.399,1.791h-6.496c0.243-3.581,3.133-6.649,9.002-6.649      c5.613,0,9.053,2.813,9.053,6.445v13.452h-6.598v-2.762h-0.154c-1.188,2.2-3.119,3.069-5.678,3.069      C318.274,112.196,315.641,110.38,315.641,106.468z M327.455,104.933v-1.637c-0.741,0.307-1.688,0.537-2.813,0.716      c-1.637,0.255-2.354,1.036-2.354,2.046c0,1.1,0.845,1.688,2.047,1.688C325.934,107.746,327.455,106.723,327.455,104.933z"
   id="path153" />
				<path
   fill="#FFFFFF"
   d="M337.73,85.702h7.059v9.974h0.102c0.771-1.995,2.609-3.683,5.524-3.683      c3.888,0,7.672,2.967,7.672,10.076c0,6.803-3.528,10.076-7.724,10.076c-2.766,0-4.654-1.483-5.477-3.478h-0.148v3.222h-7.008      V85.702L337.73,85.702z M347.756,106.723c1.943,0,3.068-1.739,3.068-4.654s-1.125-4.654-3.068-4.654      c-1.94,0-3.121,1.739-3.121,4.654C344.635,104.933,345.813,106.723,347.756,106.723z"
   id="path155" />
				<path
   fill="#FFFFFF"
   d="M373.783,92.249h7.059v19.641h-6.701v-3.734h-0.204c-0.854,2.506-3.104,3.99-6.031,3.99      c-4.132,0-6.845-3.069-6.854-7.365V92.249h7.063v11.048c0.014,1.944,1.032,3.12,2.813,3.12c1.752,0,2.877-1.176,2.864-3.12      L373.783,92.249L373.783,92.249z"
   id="path157" />
				<path
   fill="#FFFFFF"
   d="M391.475,111.889h-7.059v-19.64h6.701v3.734h0.203c0.854-2.481,3.146-3.99,6.036-3.99      c4.169,0,6.862,3.095,6.854,7.365v12.531h-7.059v-11.048c0.012-1.944-1.036-3.12-2.813-3.12c-1.752,0-2.852,1.176-2.864,3.12      L391.475,111.889L391.475,111.889z"
   id="path159" />
				<path
   fill="#FFFFFF"
   d="M419.395,97.363h-3.375v8.209c0,0.818,0.408,1.228,1.33,1.228c0.422,0,1.111-0.141,1.381-0.205      l1.022,4.961c-0.64,0.192-1.829,0.524-3.427,0.614c-4.871,0.269-7.416-1.816-7.365-5.933v-8.874h-2.506v-5.115h2.506v-4.706      h7.059v4.706h3.375V97.363z"
   id="path161" />
				<path
   fill="#FFFFFF"
   d="M434.99,92.249h7.059v19.641h-6.699v-3.734h-0.205c-0.854,2.506-3.104,3.99-6.031,3.99      c-4.135,0-6.846-3.069-6.854-7.365V92.249h7.062v11.048c0.013,1.944,1.032,3.12,2.813,3.12c1.752,0,2.877-1.176,2.863-3.12      L434.99,92.249L434.99,92.249z M425.018,86.98c0-1.637,1.385-2.967,3.119-2.967c1.688,0,3.07,1.33,3.07,2.967      s-1.382,2.966-3.07,2.966C426.398,89.947,425.018,88.617,425.018,86.98z M433.15,86.98c0-1.637,1.381-2.967,3.115-2.967      c1.688,0,3.068,1.33,3.068,2.967s-1.381,2.966-3.068,2.966C434.531,89.947,433.15,88.617,433.15,86.98z"
   id="path163" />
				<path
   fill="#FFFFFF"
   d="M457.08,98.642c-0.102-1.202-1.266-1.944-2.658-1.944c-1.215,0-2.227,0.46-2.201,1.279      c-0.021,0.575,0.396,1.112,1.896,1.381l3.986,0.716c4.02,0.729,5.962,2.417,5.984,5.319c-0.022,4.207-4.027,6.854-9.463,6.854      c-6.01,0-9.486-2.672-9.871-6.7h7.008c0.191,1.253,1.316,1.943,2.914,1.943c1.293,0,2.229-0.46,2.252-1.278      c-0.021-0.742-0.717-1.151-2.252-1.432l-3.477-0.614c-4.002-0.704-6.01-2.686-5.984-5.78c-0.021-4.092,3.439-6.394,9.053-6.394      c5.682,0,9.132,2.494,9.313,6.649L457.08,98.642L457.08,98.642z"
   id="path165" />
			</g>
			<g
   id="g197">
				<path
   fill="#FFFFFF"
   d="M228.194,67.841c0.016-0.912,0.016-1.584-0.016-2.657c-0.032-1.041-0.176-1.233-0.448-1.537      c0.496,0.032,1.185,0.032,1.697,0.032c0.384,0,0.769-0.016,1.152-0.016c0.384,0,0.752-0.016,1.137-0.016      c0.848,0,1.792,0.096,2.529,0.528c1.393,0.816,1.937,2.545,1.937,4.818c0,4.033-1.505,5.97-5.09,5.97      c-0.416,0-0.896-0.016-1.408-0.016c-0.672,0-1.505,0-2.001,0.016c0.496-0.592,0.496-0.736,0.512-3.441L228.194,67.841      L228.194,67.841z M229.955,70.226c0,0.672,0,2.577,0.048,2.897c0.048,0.448,0.224,0.625,1.024,0.625      c2.225,0,3.313-1.121,3.313-4.418c0-2.849-0.576-4.482-3.137-4.482c-0.4,0-0.833,0.032-1.201,0.064      c-0.032,0.785-0.048,0.993-0.048,3.105L229.955,70.226L229.955,70.226z"
   id="path169" />
				<path
   fill="#FFFFFF"
   d="M243.251,70.834h-4.258c0,0.785,0.032,3.058,2.529,3.058c0.96,0,1.393-0.272,1.729-0.48      c-0.096,0.496-0.176,0.864-0.16,1.441c-0.288,0.08-0.816,0.24-1.905,0.24c-2.449,0-3.905-1.28-3.905-4.53      c0-0.768,0-4.386,3.265-4.386c2.369,0,2.737,1.841,2.737,3.713L243.251,70.834z M241.699,69.73      c0.032-1.137-0.064-2.513-1.313-2.513c-1.136,0-1.408,1.185-1.424,2.513H241.699z"
   id="path171" />
				<path
   fill="#FFFFFF"
   d="M244.562,68.385c0-3.441,0-4.498-0.625-4.754c0.688-0.064,1.329-0.144,2.369-0.625      c-0.128,1.457-0.144,4.306-0.144,5.122c0.24-0.656,0.688-1.937,2.225-1.937c0.768,0,1.488,0.384,1.937,1.136      c0.464,0.8,0.528,2.065,0.528,2.641c0,0.944-0.16,2.193-0.625,3.122c-0.976,2-2.785,2-3.409,2c-0.977,0-1.793-0.144-2.449-0.4      c0.192-0.512,0.192-1.185,0.192-2.369L244.562,68.385L244.562,68.385z M247.699,67.649c-0.144,0-0.896,0.016-1.232,1.152      c-0.112,0.352-0.256,1.073-0.256,2.449c0,1.152,0,2.145,0.032,2.721c0.208,0.048,0.528,0.096,0.784,0.096      c1.857,0,2.129-2,2.129-3.489C249.155,69.33,248.915,67.649,247.699,67.649z"
   id="path173" />
				<path
   fill="#FFFFFF"
   d="M254.371,74.996c-0.32-0.048-0.544-0.08-1.009-0.08c-0.512,0-0.864,0.032-1.232,0.08      c0.16-0.304,0.224-0.448,0.272-1.489c0.064-1.425,0.08-5.234-0.032-6.035c-0.08-0.608-0.224-0.704-0.448-0.864      c1.313-0.128,1.681-0.224,2.289-0.512c-0.128,0.705-0.144,1.057-0.144,2.129C254.034,73.748,254.018,74.34,254.371,74.996z       M253.202,65.456c-0.577,0-0.896-0.416-0.896-1.024c0-0.448,0.144-1.088,0.912-1.088c0.72,0,0.864,0.544,0.864,1.024      C254.098,64.944,253.906,65.456,253.202,65.456z"
   id="path175" />
				<path
   fill="#FFFFFF"
   d="M258.915,69.506c0.432,0,0.688,0.032,0.992,0.048c0-1.249,0-2.129-1.329-2.129      c-0.833,0-1.648,0.288-2.273,0.833c-0.144-0.688-0.304-0.993-0.496-1.345c0.464-0.24,1.393-0.72,2.977-0.72      c2.401,0,2.721,1.2,2.721,2.417l-0.016,3.265c0,0.849,0,1.457,0.032,2.065c0.048,0.624,0.144,0.784,0.32,1.057      c-0.272-0.016-0.528-0.048-0.8-0.048c-0.48,0-0.768,0.032-1.056,0.048c-0.048-0.561-0.064-0.993-0.048-1.697      c-0.304,0.672-0.801,1.761-2.273,1.761c-0.128,0-0.528,0-0.929-0.176c-0.896-0.432-1.2-1.44-1.2-2.449      C255.538,70.29,256.882,69.506,258.915,69.506z M259.091,70.466c-0.608,0-1.953,0.112-1.953,1.617      c0,0.785,0.208,1.585,1.168,1.585c0.416,0,0.976-0.208,1.313-0.929c0.272-0.56,0.288-1.264,0.32-2.273H259.091z"
   id="path177" />
				<path
   fill="#FFFFFF"
   d="M269.156,73.411c0.016,0.544,0.016,1.121,0.24,1.585c-0.352-0.032-0.56-0.08-1.216-0.08      c-0.384,0-0.592,0.032-0.896,0.08c0.064-0.208,0.096-0.288,0.128-0.561c0.048-0.368,0.08-1.601,0.08-2.033v-1.729      c0-0.752,0-1.841-0.048-2.225c-0.032-0.272-0.112-1.008-1.041-1.008c-0.912,0-1.216,0.672-1.329,1.216      c-0.128,0.561-0.128,1.168-0.128,3.538c0.016,2.049,0.016,2.241,0.176,2.801c-0.272-0.032-0.608-0.064-1.088-0.064      c-0.384,0-0.641,0.016-0.96,0.064c0.112-0.256,0.176-0.384,0.208-1.281c0.032-0.88,0.096-5.202-0.048-6.227      c-0.08-0.624-0.24-0.768-0.417-0.928c1.297-0.064,1.713-0.272,2.113-0.48v1.697c0.192-0.496,0.592-1.601,2.193-1.601      c2.001,0,2.017,1.457,2.033,2.417L269.156,73.411L269.156,73.411z"
   id="path179" />
				<path
   fill="#FFFFFF"
   d="M280.545,74.308l-0.08,0.656h-5.392l0.048-3.104l-0.048-7.12h5.376l0.064,0.096l-0.096,0.656      l-2.384-0.032l-2.112,0.016l-0.032,3.856l2,0.016l1.712-0.016l0.064,0.08l-0.08,0.656l-3.696-0.016l-0.016,1.76l0.032,2.432      l2.064,0.016l2.512-0.048L280.545,74.308z"
   id="path181" />
				<path
   fill="#FFFFFF"
   d="M287.057,71.796l0.032,1.776c0,0.278,0.038,0.472,0.112,0.584c0.074,0.112,0.208,0.168,0.4,0.168      c0.181,0,0.378-0.053,0.592-0.16l0.112,0.08l-0.096,0.528c-0.256,0.16-0.528,0.245-0.816,0.256      c-0.608-0.021-0.939-0.4-0.992-1.136h-0.08c-0.331,0.331-0.651,0.586-0.96,0.768c-0.309,0.182-0.656,0.31-1.04,0.384      c-0.96,0-1.707-0.32-2.24-0.96c-0.534-0.64-0.8-1.536-0.8-2.688c0-1.216,0.304-2.157,0.912-2.824c0.608-0.667,1.461-1,2.56-1      c0.458,0,0.976,0.07,1.552,0.208v-3.968l0.816-0.08L287.057,71.796z M282.753,68.996c-0.458,0.533-0.688,1.296-0.688,2.288      c0,0.96,0.197,1.707,0.592,2.24c0.395,0.533,0.938,0.8,1.632,0.8c0.373,0,0.725-0.093,1.056-0.28      c0.331-0.187,0.656-0.482,0.976-0.888l0.016-1.296l-0.032-3.312c-0.565-0.234-1.109-0.352-1.632-0.352      C283.852,68.196,283.211,68.462,282.753,68.996z"
   id="path183" />
				<path
   fill="#FFFFFF"
   d="M290.953,64.74c0.09,0.096,0.136,0.224,0.136,0.384c0,0.17-0.048,0.307-0.144,0.408      c-0.096,0.102-0.229,0.152-0.4,0.152c-0.17,0-0.301-0.045-0.392-0.136c-0.091-0.09-0.136-0.221-0.136-0.392      c0-0.17,0.048-0.306,0.144-0.408c0.096-0.102,0.229-0.152,0.4-0.152C290.731,64.596,290.862,64.644,290.953,64.74z       M290.177,71.844l-0.016-4.096l0.8-0.096l-0.016,4.144l0.016,3.168h-0.816L290.177,71.844z"
   id="path185" />
				<path
   fill="#FFFFFF"
   d="M297.041,73.956l0.096,0.08l-0.08,0.576c-0.534,0.277-1.014,0.421-1.44,0.432      c-0.555-0.064-0.966-0.259-1.232-0.584c-0.267-0.325-0.4-0.792-0.4-1.4l0.032-1.44L294,68.292h-0.992l-0.064-0.08l0.064-0.512      H294v-1.456l0.704-0.288l0.096,0.08l-0.016,1.664h2.32l0.064,0.08l-0.064,0.512h-2.32l-0.048,4.688      c0,0.458,0.09,0.797,0.272,1.016c0.181,0.219,0.458,0.328,0.832,0.328S296.614,74.201,297.041,73.956z"
   id="path187" />
				<path
   fill="#FFFFFF"
   d="M299.625,64.74c0.09,0.096,0.136,0.224,0.136,0.384c0,0.17-0.048,0.307-0.144,0.408      c-0.1,0.102-0.229,0.152-0.4,0.152c-0.17,0-0.301-0.045-0.392-0.136c-0.091-0.09-0.136-0.221-0.136-0.392      c0-0.17,0.048-0.306,0.144-0.408s0.229-0.152,0.4-0.152C299.403,64.596,299.534,64.644,299.625,64.74z M298.849,71.844      l-0.016-4.096l0.8-0.096l-0.016,4.144l0.016,3.168h-0.813L298.849,71.844z"
   id="path189" />
				<path
   fill="#FFFFFF"
   d="M307.32,68.54c0.539,0.646,0.808,1.544,0.808,2.696c0,1.206-0.283,2.144-0.848,2.816      c-0.565,0.672-1.353,1.008-2.354,1.008c-0.96,0-1.707-0.323-2.236-0.968c-0.534-0.645-0.804-1.539-0.804-2.68      c0-1.206,0.28-2.147,0.843-2.824c0.561-0.677,1.342-1.016,2.345-1.016C306.033,67.572,306.782,67.895,307.32,68.54z       M303.296,68.996c-0.416,0.533-0.624,1.285-0.624,2.256c0,1.024,0.2,1.811,0.604,2.36c0.396,0.549,0.962,0.824,1.688,0.824      c0.757,0,1.344-0.264,1.76-0.792s0.624-1.277,0.624-2.248c0-1.024-0.203-1.813-0.604-2.368      c-0.405-0.555-0.975-0.832-1.696-0.832C304.294,68.196,303.712,68.462,303.296,68.996z"
   id="path191" />
				<path
   fill="#FFFFFF"
   d="M314.785,69.924c0.011-0.512-0.115-0.909-0.376-1.192c-0.262-0.283-0.632-0.424-1.112-0.424      c-0.384,0-0.779,0.115-1.184,0.344c-0.406,0.229-0.795,0.558-1.168,0.984l-0.02,2.16l0.048,3.168h-0.832l0.052-3.12      l-0.032-4.096l0.784-0.096v1.168h0.08c0.358-0.352,0.734-0.634,1.128-0.848c0.389-0.213,0.765-0.341,1.128-0.384      c0.732,0,1.301,0.189,1.692,0.568c0.396,0.379,0.586,0.915,0.576,1.608l-0.016,2.048l0.032,3.152h-0.832L314.785,69.924z"
   id="path193" />
				
			</g>
		</g>
		<path
   id="back_x5F_white_x5F_02"
   fill="#FFFFFF"
   d="M201.942,93.607c0-5.376-1.065-10.595-3.166-15.512    c-1.332-3.12-3.06-6.052-5.146-8.738c1.577-2.254,2.431-4.933,2.431-7.703c0.002-7.435-6.048-13.484-13.485-13.484    c-4.85,0-9.256,2.577-11.651,6.69c-2.974-0.686-6.019-1.033-9.072-1.033c-5.436,0.005-10.674,1.058-15.606,3.128    c-4.767,2-9.048,4.863-12.726,8.508c-3.68,3.646-6.571,7.899-8.595,12.64c-0.328,0.769-0.637,1.563-0.922,2.374    c-0.133-0.004-0.264-0.007-0.394-0.007c-7.436,0-13.484,6.049-13.484,13.483c0,7.437,6.049,13.486,13.484,13.486    c0.213,0,0.428-0.006,0.644-0.017c0.217,0.587,0.44,1.149,0.673,1.697c2.027,4.743,4.923,8.997,8.609,12.646    c3.676,3.643,7.961,6.505,12.737,8.505c4.942,2.07,10.184,3.119,15.58,3.119c3.56,0,7.082-0.465,10.494-1.384    c2.364,4.228,6.8,6.873,11.746,6.873c7.436,0,13.484-6.049,13.484-13.484c0-3.157-1.126-6.214-3.136-8.625    c1.734-2.395,3.189-4.96,4.335-7.647C200.877,104.203,201.942,98.983,201.942,93.607z M191.822,116.917    c2.303,2.101,3.756,5.115,3.756,8.478c0,6.343-5.142,11.484-11.484,11.484c-4.852,0-8.993-3.015-10.675-7.27    c-3.724,1.179-7.599,1.781-11.565,1.781c-5.133,0-10.113-0.998-14.808-2.964c-4.535-1.899-8.608-4.618-12.103-8.081    c-3.502-3.468-6.252-7.508-8.176-12.009c-0.432-1.014-0.81-2.044-1.15-3.083c-0.652,0.115-1.32,0.187-2.007,0.187    c-6.343,0-11.484-5.144-11.484-11.486c0-6.342,5.142-11.483,11.484-11.483c0.612,0,1.208,0.062,1.793,0.153    c0.388-1.263,0.839-2.51,1.362-3.735c1.92-4.498,4.666-8.539,8.163-12.005c3.494-3.463,7.562-6.183,12.093-8.084    c4.689-1.969,9.668-2.968,14.797-2.973h0.035c3.463,0,6.855,0.465,10.139,1.364c1.742-4.126,5.826-7.021,10.584-7.021    c6.343,0,11.486,5.142,11.486,11.484c0,2.974-1.141,5.676-2.995,7.715c2.422,2.865,4.394,6.051,5.871,9.512    c1.993,4.666,3.005,9.622,3.005,14.727c0,5.106-1.012,10.062-3.005,14.729C195.619,111.429,193.898,114.296,191.822,116.917z" />
		<circle
   id="back_x5F_white_x5F_01"
   fill="#FFFFFF"
   cx="161.333"
   cy="93.832"
   r="27.822" />
		<circle
   fill="#0C5580"
   cx="123.61"
   cy="93.956"
   r="11.485"
   id="circle202" />
		<path
   fill="#0C5580"
   d="M182.576,50.17c6.343,0,11.486,5.142,11.486,11.484c0,6.344-5.144,11.485-11.486,11.485    c-6.341,0-11.484-5.142-11.484-11.485C171.092,55.312,176.235,50.17,182.576,50.17z"
   id="path204" />
		<circle
   fill="#0C5580"
   cx="184.094"
   cy="125.395"
   r="11.484"
   id="circle206" />
		<path
   id="cercle_x5F_ext"
   fill="#0C5580"
   d="M161.854,131.391L161.854,131.391c-5.133,0-10.113-0.998-14.808-2.964    c-4.535-1.899-8.608-4.618-12.103-8.081c-3.502-3.468-6.252-7.508-8.176-12.009c-1.992-4.668-3.002-9.623-3.002-14.729    c0-5.102,1.008-10.054,3-14.719c1.92-4.498,4.666-8.539,8.163-12.005c3.494-3.463,7.562-6.183,12.093-8.084    c4.689-1.969,9.668-2.968,14.797-2.973h0.035c5.132,0,10.114,0.996,14.809,2.963c4.533,1.898,8.606,4.619,12.104,8.082    c3.502,3.466,6.251,7.507,8.173,12.009c1.993,4.666,3.005,9.622,3.005,14.727c0,5.106-1.012,10.062-3.005,14.729    c-1.922,4.501-4.671,8.541-8.173,12.009c-3.497,3.463-7.57,6.182-12.104,8.081C171.968,130.393,166.985,131.391,161.854,131.391z     M161.824,68.184c-14.17,0.013-25.702,11.418-25.702,25.424c0,14.02,11.543,25.426,25.731,25.426    c14.189,0,25.732-11.405,25.732-25.426c0-14.019-11.543-25.424-25.732-25.424H161.824z" />
		<circle
   fill="#FFD700"
   cx="182.576"
   cy="61.655"
   r="8.163"
   id="circle209" />
		<circle
   fill="#FFD700"
   cx="184.094"
   cy="125.395"
   r="8.164"
   id="circle211" />
		<circle
   fill="#FFD700"
   cx="123.61"
   cy="93.955"
   r="8.164"
   id="circle213" />
		<path
   fill="#FFD700"
   d="M160.681,113.618c-4.392-0.203-8.564-1.829-11.95-4.656c-2.614-2.184-4.663-5.057-5.857-8.215    c-0.271-0.718-0.557-1.628-0.713-2.274c-0.035-0.146-0.068-0.277-0.073-0.291c-0.007-0.02,0.954-0.024,4.763-0.024h4.77    l0.143,0.291c0.391,0.789,0.936,1.613,1.516,2.288c0.278,0.325,0.843,0.887,1.168,1.164c1.099,0.936,2.335,1.631,3.701,2.084    c2.619,0.866,5.481,0.697,8.018-0.471c1.559-0.718,2.984-1.861,4.053-3.246c2.029-2.632,2.746-6.05,1.947-9.285    c-0.4-1.623-1.157-3.112-2.245-4.413c-0.257-0.309-0.803-0.87-1.109-1.141c-0.956-0.848-2.017-1.501-3.214-1.979    c-1.471-0.588-3.172-0.859-4.711-0.755c-1.478,0.103-2.783,0.446-4.08,1.074c-1.176,0.569-2.139,1.261-3.05,2.192    c-0.837,0.854-1.459,1.729-1.991,2.798l-0.15,0.3h-4.754c-2.615,0-4.76-0.005-4.767-0.012c-0.014-0.015,0.153-0.671,0.282-1.105    c1.023-3.474,2.965-6.603,5.61-9.041c3.275-3.021,7.395-4.851,11.818-5.251c0.661-0.061,1.22-0.079,2.07-0.067    c0.836,0.012,1.262,0.037,1.978,0.118c6.091,0.686,11.535,4.136,14.775,9.364c2.475,3.992,3.461,8.741,2.787,13.42    c-0.702,4.893-3.223,9.378-7.056,12.557c-2.285,1.894-5.005,3.271-7.899,3.993C164.596,113.502,162.577,113.704,160.681,113.618z"
   id="path215" />
	</g>
</g>
<text
   xml:space="preserve"
   style="font-size:15.2373px;line-height:1.25;font-family:Alegreya;-inkscape-font-specification:Alegreya;fill:#e6e6e6;stroke-width:0.380934;fill-opacity:1"
   x="336.22284"
   y="71.401955"
   id="text3110"
   transform="scale(0.95249017,1.0498796)"><tspan
     sodipodi:role="line"
     id="tspan3108"
     x="336.22284"
     y="71.401955"
     style="fill:#e6e6e6;stroke-width:0.380934;fill-opacity:1">5</tspan></text></svg>
