{
  "quick_start_guide_added": true, 
  "library_usage_stats": {
    "/usr/share/Documentation_emmabuntus/Documents/eBooks": 3
  }, 
  "book_details_splitter_horizontal_state": [
    true, 
    200
  ], 
  "book_list_pin_splitter_state": {
    "__class__": "bytearray", 
    "__value__": "AAAA/wAAAAEAAAACAAABAAAAAEYA/////wEAAAABAA=="
  }, 
  "grid view visible": false, 
  "search bar visible": true, 
  "quickview visible": false, 
  "cover_browser_splitter_vertical_state": [
    true, 
    276
  ], 
  "tag_browser_splitter_horizontal_state": [
    true, 
    200
  ], 
  "custom_colors_for_color_dialog": [
    [
      255, 
      255, 
      255, 
      255
    ], 
    [
      255, 
      255, 
      255, 
      255
    ], 
    [
      255, 
      255, 
      255, 
      255
    ], 
    [
      255, 
      255, 
      255, 
      255
    ], 
    [
      255, 
      255, 
      255, 
      255
    ], 
    [
      255, 
      255, 
      255, 
      255
    ], 
    [
      255, 
      255, 
      255, 
      255
    ], 
    [
      255, 
      255, 
      255, 
      255
    ], 
    [
      255, 
      255, 
      255, 
      255
    ], 
    [
      255, 
      255, 
      255, 
      255
    ], 
    [
      255, 
      255, 
      255, 
      255
    ], 
    [
      255, 
      255, 
      255, 
      255
    ], 
    [
      255, 
      255, 
      255, 
      255
    ], 
    [
      255, 
      255, 
      255, 
      255
    ], 
    [
      255, 
      255, 
      255, 
      255
    ], 
    [
      255, 
      255, 
      255, 
      255
    ]
  ], 
  "tag browser search box visible": false
}